[
{
  "model": "accounts.person",
  "pk": 1,
  "fields": {
    "user": [
      "owner"
    ],
    "first_name": "Hotel",
    "last_name": "Owner",
    "email": "mykyta.chernenko@nure.ua",
    "avatar": "staging/accounts/person/photo_2018-08-06_22-16-53.jpg",
    "is_hotel_owner": true,
    "fingerprint": "3,1,92,14,153,0,0,14,0,14,0,14,0,6,0,6,0,6,0,6,0,6,0,6,0,6,0,14,0,14,128,14,192,62,225,254,255,254,255,254,0,0,0,0,0,0,0,0,0,0,0,0,0,0,0,0,27,4,232,254,21,137,170,30,36,152,210,190,26,154,149,190,19,35,22,94,41,184,40,222,51,134,166,95,84,14,40,223,33,145,232,127,70,29,146,223,15,158,43,127,34,158,169,31,87,162,146,95,56,46,209,127,0,0,0,0,0,0,0,0,0,0,0,0,0,0,0,0,0,0,0,0,0,0,0,0,0,0,0,0,0,0,0,0,0,0,0,0,0,0,0,0,0,0,0,0,0,0,0,0,0,0,0,0,0,0,0,0,0,0,0,0,0,0,0,0,0,0,0,0,0,0,0,0,0,0,0,0,0,0,0,0,0,0,0,0,0,0,0,0,0,0,0,0,0,0,0,0,0,0,0,0,0,0,0,0,0,0,0,0,0,0,0,0,0,0,0,0,0,0,0,0,0,0,0,0,0,0,0,0,0,0,0,0,0,0,0,0,0,0,0,0,0,0,0,0,0,0,0,0,0,0,0,0,0,0,0,0,0,0,0,0,0,0,0,0,0,0,0,0,0,0,0,0,0,0,0,0,0,0,0,0,0,0,0,0,0,0,0,0,0,0,0,0,0,0,0,0,0,0,0,0,0,0,0,0,0,0,0,0,0,0,0,0,0,0,0,0,0,0,0,0,0,0,0,0,0,0,0,0,0,0,0,0,0,0,0,0,0,0,0,0,0,0,0,0,0,0,0,0,0,0,0,0,0,0,0,0,0,0,0,0,0,0,0,0,0,0,0,0,0,0,0,0,0,0,0,0,0,0,0,0,0,0,0,0,0,0,0,0,0,0,0,0,0,0,0,0,0,0,0,0,0,0,0,0,0,0,0,0,0,0,0,0,0,0,0,0,0,0,0,0,0,0,0,0,0,0,0,0,0,0,0,0,0,0,0,0,0,0,0,0,0,0,0,0,0,0,0,0,0,0,0,0,0,0,0,0,0,0,0,0,0,0,0,0,0,0,0,0,0,0,0,0,0,0,0,0,0,0,0,0,0,0,0,0,0,0,0,0,0,0,0,0,0,0,0,0,0,0,0,0"
  }
},
{
  "model": "accounts.person",
  "pk": 2,
  "fields": {
    "user": [
      "person"
    ],
    "first_name": "Nikita",
    "last_name": "Chernenko",
    "email": "artem@gmail.com",
    "avatar": "staging/accounts/person/photo_2017-07-27_23-20-00.jpg",
    "is_hotel_owner": false,
    "fingerprint": "3,1,86,15,135,0,224,0,224,0,224,0,224,0,224,0,224,0,224,0,224,0,224,0,224,0,224,0,240,0,240,0,248,0,252,6,255,254,255,254,0,0,0,0,0,0,0,0,0,0,0,0,0,0,0,0,91,147,103,254,83,150,108,94,75,165,217,62,86,171,236,62,113,151,102,127,62,30,27,31,94,31,106,223,92,39,86,63,64,171,216,191,73,10,197,157,55,146,158,157,53,150,93,61,66,166,192,221,45,167,26,93,44,170,130,125,0,0,0,0,0,0,0,0,0,0,0,0,0,0,0,0,0,0,0,0,0,0,0,0,0,0,0,0,0,0,0,0,0,0,0,0,0,0,0,0,0,0,0,0,0,0,0,0,0,0,0,0,0,0,0,0,0,0,0,0,0,0,0,0,0,0,0,0,0,0,0,0,0,0,0,0,0,0,0,0,0,0,0,0,0,0,0,0,0,0,0,0,0,0,0,0,0,0,0,0,0,0,0,0,0,0,0,0,0,0,0,0,0,0,0,0,0,0,0,0,0,0,0,0,0,0,0,0,0,0,0,0,0,0,0,0,0,0,0,0,0,0,0,0,0,0,0,0,0,0,0,0,0,0,0,0,0,0,0,0,0,0,0,0,0,0,0,0,0,0,0,0,0,0,0,0,0,0,0,0,0,0,0,0,0,0,0,0,0,0,0,0,0,0,0,0,0,0,0,0,0,0,0,0,0,0,0,0,0,0,0,0,0,0,0,0,0,0,0,0,0,0,0,0,0,0,0,0,0,0,0,0,0,0,0,0,0,0,0,0,0,0,0,0,0,0,0,0,0,0,0,0,0,0,0,0,0,0,0,0,0,0,0,0,0,0,0,0,0,0,0,0,0,0,0,0,0,0,0,0,0,0,0,0,0,0,0,0,0,0,0,0,0,0,0,0,0,0,0,0,0,0,0,0,0,0,0,0,0,0,0,0,0,0,0,0,0,0,0,0,0,0,0,0,0,0,0,0,0,0,0,0,0,0,0,0,0,0,0,0,0,0,0,0,0,0,0,0,0,0,0,0,0,0,0,0,0,0,0,0,0,0,0,0,0,0,0,0,0,0,0,0,0,0,0,0,0,0,0,0,0,0,0,0,0,0,0,0,0,0,0,0,0,0,0,0"
  }
},
{
  "model": "accounts.person",
  "pk": 3,
  "fields": {
    "user": [
      "owner2"
    ],
    "first_name": "Hotel",
    "last_name": "Owner second",
    "email": "daria@gmail.com",
    "avatar": "staging/accounts/person/photo_2017-11-23_18-03-25.jpg",
    "is_hotel_owner": true,
    "fingerprint": null
  }
},
{
  "model": "accounts.person",
  "pk": 4,
  "fields": {
    "user": [
      "test"
    ],
    "first_name": "",
    "last_name": "",
    "email": "",
    "avatar": "",
    "is_hotel_owner": false,
    "fingerprint": "3,1,89,40,143,0,0,0,0,0,0,0,0,0,0,0,0,0,0,0,0,0,0,0,0,0,0,2,0,2,0,2,0,6,192,6,192,62,192,62,16,16,0,0,0,0,0,0,0,0,0,0,0,0,0,0,40,134,8,62,15,138,79,62,15,144,72,190,63,157,29,254,39,46,157,62,42,179,4,254,68,53,219,126,74,184,89,190,56,58,90,190,25,189,155,118,106,5,199,215,93,6,93,223,20,135,23,95,27,143,135,255,98,16,135,159,118,150,30,127,110,155,29,223,80,157,158,31,37,161,222,223,38,165,198,95,95,167,92,31,77,168,133,95,55,174,29,31,82,51,27,255,87,138,73,124,45,12,94,93,52,140,136,29,89,143,95,61,37,145,71,125,52,132,94,50,44,188,197,250,52,6,135,27,36,188,8,219,71,63,24,123,33,63,153,187,26,21,8,57,66,194,24,83,62,64,132,76,60,66,88,147,52,62,197,16,0,0,0,0,0,0,0,0,0,0,0,0,0,0,0,0,0,0,0,0,0,0,0,0,0,0,0,0,0,0,0,0,0,0,0,0,0,0,0,0,0,0,0,0,0,0,0,0,0,0,0,0,0,0,0,0,0,0,0,0,0,0,0,0,0,0,0,0,0,0,0,0,0,0,0,0,0,0,0,0,0,0,0,0,0,0,0,0,0,0,0,0,0,0,0,0,0,0,0,0,0,0,0,0,0,0,0,0,0,0,0,0,0,0,0,0,0,0,0,0,0,0,0,0,0,0,0,0,0,0,0,0,0,0,0,0,0,0,0,0,0,0,0,0,0,0,0,0,0,0,0,0,0,0,0,0,0,0,0,0,0,0,0,0,0,0,0,0,0,0,0,0,0,0,0,0,0,0,0,0,0,0,0,0,0,0,0,0,0,0,0,0,0,0,0,0,0,0,0,0,0,0,0,0,0,0,0,0,0,0,0,0,0,0,0,0,0,0,0,0,0,0,0,0,0,0,0,0,0,0,0,0,0,0,0,0,0,0,0,0,0,0,0,0,0,0,0,0,0,0,0,0,0,0,0,0,0,0,0,0,0,0,0,0,0,0,0,0,0,0,0,0,0,0,0,0,0,0,0,0,0,0,0,0,0,0,0,0,0,0,0,0,0,0,0,0"
  }
},
{
  "model": "accounts.person",
  "pk": 5,
  "fields": {
    "user": [
      "prod"
    ],
    "first_name": "",
    "last_name": "",
    "email": "",
    "avatar": "",
    "is_hotel_owner": false,
    "fingerprint": null
  }
}
]
